<svg width="44" height="44" viewBox="0 0 44 44" fill="none" xmlns="http://www.w3.org/2000/svg">
<g id="File / File_Upload">
<path id="Vector" d="M22.0003 33V22M22.0003 22L16.5003 25.6667M22.0003 22L27.5003 25.6667M23.8337 5.50159C23.6586 5.5 23.462 5.5 23.2373 5.5H15.034C12.9805 5.5 11.953 5.5 11.1686 5.89964C10.4787 6.25118 9.91817 6.8117 9.56663 7.50163C9.16699 8.28597 9.16699 9.3135 9.16699 11.367V32.6337C9.16699 34.6872 9.16699 35.7134 9.56664 36.4978C9.91817 37.1877 10.4787 37.7492 11.1686 38.1007C11.9522 38.5 12.9785 38.5 15.0281 38.5L28.9727 38.5C31.0222 38.5 32.047 38.5 32.8306 38.1007C33.5205 37.7492 34.0829 37.1877 34.4344 36.4978C34.8337 35.7142 34.8337 34.6894 34.8337 32.6399V17.0971C34.8337 16.8721 34.8336 16.6753 34.8319 16.5M23.8337 5.50159C24.3573 5.50636 24.6886 5.52538 25.0049 5.60131C25.379 5.69113 25.7364 5.83965 26.0645 6.04069C26.4344 6.26737 26.752 6.585 27.3857 7.21875L33.1158 12.9488C33.75 13.583 34.0653 13.8992 34.292 14.2692C34.493 14.5973 34.6418 14.955 34.7316 15.3291C34.8075 15.6452 34.827 15.9766 34.8319 16.5M23.8337 5.50159V10.6333C23.8337 12.6869 23.8337 13.7129 24.2333 14.4973C24.5848 15.1872 25.1454 15.7492 25.8353 16.1007C26.6189 16.5 27.6452 16.5 29.6947 16.5H34.8319M34.8319 16.5H34.834" stroke="white" stroke-width="4.5" stroke-linecap="round" stroke-linejoin="round"/>
</g>
</svg>
