<svg width="69" height="69" viewBox="0 0 69 69" fill="none" xmlns="http://www.w3.org/2000/svg">
<path d="M27.6004 12.8354C26.7496 10.7083 24.6895 9.31356 22.3986 9.31356H14.6929C11.7616 9.31356 9.38525 11.6893 9.38525 14.6207C9.38525 39.5371 29.5846 59.7365 54.5011 59.7365C57.4325 59.7365 59.8082 57.36 59.8082 54.4286L59.8095 46.7217C59.8095 44.4308 58.4151 42.371 56.2881 41.5202L48.9026 38.5671C46.992 37.8028 44.8166 38.1468 43.2357 39.4642L41.3296 41.0539C39.1036 42.9089 35.8283 42.7614 33.7793 40.7125L28.4121 35.3404C26.3632 33.2914 26.2118 30.0187 28.0668 27.7927L29.6562 25.8867C30.9736 24.3059 31.3206 22.1298 30.5563 20.2192L27.6004 12.8354Z" stroke="white" stroke-width="5.60255" stroke-linecap="round" stroke-linejoin="round"/>
</svg>
