<svg width="31" height="24" viewBox="0 0 31 24" color="FF8A00" xmlns="http://www.w3.org/2000/svg">
<path fill-rule="evenodd" clip-rule="evenodd" d="M24.9663 2.84953L24.9744 2.85021L24.9826 2.85084C26.0138 2.93016 26.5604 3.12588 26.8615 3.30528C27.1085 3.45247 27.3264 3.66605 27.5343 4.1369C27.7692 4.66901 27.9698 5.48865 28.0967 6.77414C28.2222 8.04582 28.2629 9.6198 28.2629 11.5942C28.2629 13.5682 28.2222 15.1512 28.0965 16.4341C27.9693 17.7317 27.768 18.5655 27.5308 19.1075C27.32 19.5894 27.1035 19.795 26.8744 19.9297C26.5926 20.0953 26.0652 20.2812 25.0481 20.3334L25.0481 20.3333L25.0371 20.334C20.5167 20.5851 10.3676 20.5856 5.82364 20.3355C4.80926 20.2549 4.26933 20.061 3.97077 19.8831C3.72371 19.7359 3.50582 19.5224 3.29797 19.0515C3.06307 18.5194 2.86247 17.6997 2.73558 16.4143C2.61005 15.1426 2.56935 13.5686 2.56935 11.5942C2.56935 9.6198 2.61005 8.04582 2.73558 6.77414C2.86247 5.48865 3.06307 4.66901 3.29797 4.1369C3.50582 3.66605 3.72371 3.45247 3.97077 3.30528C4.27187 3.12588 4.81847 2.93016 5.84964 2.85084L5.85779 2.85021L5.86595 2.84953C10.3488 2.47596 20.4834 2.47596 24.9663 2.84953ZM0 11.5942C0 19.5592 0.642338 22.5139 5.65258 22.8994C10.2774 23.1563 20.5548 23.1563 25.1797 22.8994C30.1899 22.6424 30.8322 19.5592 30.8322 11.5942C30.8322 3.62921 30.1899 0.674455 25.1797 0.289052C20.5548 -0.0963507 10.2774 -0.0963507 5.65258 0.289052C0.642338 0.674455 0 3.62921 0 11.5942ZM13.4214 15.8037C12.5672 16.2308 11.5622 15.6096 11.5622 14.6546V8.5345C11.5622 7.57949 12.5672 6.95836 13.4214 7.38545L19.5415 10.4455C20.4884 10.9189 20.4884 12.2702 19.5415 12.7436L13.4214 15.8037Z" fill="white"/>
</svg>
