<svg width="27" height="25" viewBox="0 0 27 25" xmlns="http://www.w3.org/2000/svg">
<path d="M5.65207 2.71739C5.65207 4.23913 4.45642 5.43478 2.93468 5.43478C1.41294 5.43478 0.217285 4.23913 0.217285 2.71739C0.217285 1.19565 1.41294 0 2.93468 0C4.45642 0 5.65207 1.19565 5.65207 2.71739ZM5.65207 7.6087H0.217285V25H5.65207V7.6087ZM14.3477 7.6087H8.91294V25H14.3477V15.8696C14.3477 10.7609 20.8695 10.3261 20.8695 15.8696V25H26.3042V14.0217C26.3042 5.43478 16.6303 5.76087 14.3477 10V7.6087Z" fill="#0072b1"/>
</svg>
